Example 1: Split-plot design with one qualitative and one quantitative level factor — example1 • agriTutorial
…
##----fm1.7.Rice----
Rice1 <-
  rice %>%
  dplyr::group_by(Replicate, nitrogen, variety) %>%
  dplyr::summarise(Yield = mean(yield, na.rm = TRUE))

Rice1
#> # A tibble: 45 x 4
#> # Groups:   Replicate, nitrogen [?]
#>    Replicate nitrogen variety Yield
#>    <fct>     <fct>    <fct>   <dbl>
#>  1 R1        0        V1       3.92
#>  2 R1        0        V2       5.92
#>  3 R1        0        V3       6.60
#>  4 R1        50       V1       4.02
#>  5 R1        50       V2       6.32
#>  6 R1        50       V3       7.93
#>  7 R1        80       V1       5.81
#>  8 R1        80       V2       6.26
#>  9 R1        80       V3       8.74
#> 10 R1        110      V1       5.44
#> # ... with 35 more rows
…
