Example 4: One qualitative treatment factor with repeated measurements over time. — example4 • agriTutorial
…
##----fm4.6.Coef----
 fm4.6.Coef
#> # A tibble: 40 x 5
#>    term         estimate std.error statistic    p.value
#>    <chr>           <dbl>     <dbl>     <dbl>      <dbl>
#>  1 (Intercept)     1.53      0.705     2.17  0.0339    
#>  2 factblock2      0.652     0.788     0.828 0.411     
#>  3 factblock3      0.950     0.788     1.21  0.233     
#>  4 factblock4      0.725     0.788     0.920 0.361     
#>  5 factblock5      0.423     0.788     0.536 0.594     
#>  6 variety2        2.71      0.705     3.84  0.000296  
#>  7 variety3        0.398     0.705     0.565 0.574     
#>  8 variety4        3.20      0.705     4.55  0.0000269 
#>  9 varweek         6.70      1.29      5.20  0.00000249
#> 10 I(varweek^2)   -4.15      0.772    -5.37  0.00000134
#> # ... with 30 more rows
…
##----fm4.7.Coef----
 fm4.7.Coef
#> # A tibble: 32 x 5
#>    term          estimate std.error statistic  p.value
#>    <chr>            <dbl>     <dbl>     <dbl>    <dbl>
#>  1 (Intercept)    4.68       0.122     38.4   7.73e-48
#>  2 polBlocks1    -6.45       0.609    -10.6   5.13e-16
#>  3 polBlocks2    -1.26       0.609     -2.07  4.25e- 2
#>  4 polBlocks3    -0.110      0.609     -0.180 8.58e- 1
#>  5 polBlocks4     0.369      0.609      0.605 5.47e- 1
#>  6 variety2       0.785      0.172      4.56  2.23e- 5
#>  7 variety3       0.0732     0.172      0.425 6.72e- 1
#>  8 variety4       0.501      0.172      2.91  4.92e- 3
#>  9 rawWeeks[, 1] -0.379      0.0829    -4.57  2.12e- 5
#> 10 rawWeeks[, 2] -0.00429    0.0136    -0.316 7.53e- 1
#> # ... with 22 more rows
…
##----fm4.8.Coef----
 fm4.8.Coef
#> # A tibble: 34 x 5
#>    term          estimate std.error statistic  p.value
#>    <chr>            <dbl>     <dbl>     <dbl>    <dbl>
#>  1 (Intercept)    5.46       0.155     35.2   1.62e-44
#>  2 Replicate2    -0.302      0.173     -1.75  8.53e- 2
#>  3 Replicate3    -0.569      0.173     -3.29  1.63e- 3
#>  4 Replicate4    -1.18       0.173     -6.83  3.23e- 9
#>  5 Replicate5    -1.84       0.173    -10.6   6.47e-16
#>  6 rawWeeks[, 1] -0.412      0.102     -4.05  1.37e- 4
#>  7 rawWeeks[, 2] -0.00938    0.0166    -0.566 5.73e- 1
#>  8 polWeeks[, 3]  0.385      0.217      1.78  7.97e- 2
#>  9 polWeeks[, 4] -0.686      0.216     -3.18  2.24e- 3
#> 10 variety2       0.786      0.155      5.07  3.38e- 6
#> # ... with 24 more rows
…
